{
  "project_info": {
    "project_number": "984407592257",
    "project_id": "king-buy-app",
    "storage_bucket": "king-buy-app.appspot.com"
  },
  "client": [
    {
      "client_info": {
        "mobilesdk_app_id": "1:984407592257:android:5409c845367426c70b65c0",
        "android_client_info": {
          "package_name": "com.example.kingbuy_app"
        }
      },
      "oauth_client": [
        {
          "client_id": "984407592257-hpcu8qoulvsbavr71t6gtobke6gair0v.apps.googleusercontent.com",
          "client_type": 1,
          "android_info": {
            "package_name": "com.example.kingbuy_app",
            "certificate_hash": "d902e60cfde724216b9241a4e20d8e693d52f7fc"
          }
        },
        {
          "client_id": "984407592257-3msek7hokplja2tdljcrlv439u9mg860.apps.googleusercontent.com",
          "client_type": 3
        }
      ],
      "api_key": [
        {
          "current_key": "AIzaSyBZrXWUHCpVwN30ioiMpSdl78Sao1h-sxI"
        }
      ],
      "services": {
        "appinvite_service": {
          "other_platform_oauth_client": [
            {
              "client_id": "984407592257-3msek7hokplja2tdljcrlv439u9mg860.apps.googleusercontent.com",
              "client_type": 3
            }
          ]
        }
      }
    }
  ],
  "configuration_version": "1"
}